<?xml version="1.0" standalone="no"?>
<!DOCTYPE svg PUBLIC "-//W3C//DTD SVG 20010904//EN"
 "http://www.w3.org/TR/2001/REC-SVG-20010904/DTD/svg10.dtd">
<svg version="1.0" xmlns="http://www.w3.org/2000/svg"
 width="1475.000000pt" height="1475.000000pt" viewBox="0 0 1475.000000 1475.000000"
 preserveAspectRatio="xMidYMid meet">
<metadata>
Created by potrace 1.11, written by Peter Selinger 2001-2013
</metadata>
<g transform="translate(0.000000,1475.000000) scale(0.100000,-0.100000)"
fill="#000000" stroke="none">
<path d="M481 9834 l-476 -473 0 -1983 0 -1983 326 -330 c180 -181 392 -396
471 -477 l144 -147 6429 0 6428 0 474 472 473 471 0 1992 0 1991 -466 469
-465 469 -995 0 -994 0 0 -212 0 -213 440 -443 439 -442 327 0 c179 0 328 -3
331 -8 6 -11 6 -3157 -1 -3164 -3 -3 -1216 -6 -2696 -6 l-2691 0 -236 -261
c-131 -144 -254 -279 -274 -301 -21 -22 -46 -50 -56 -63 l-18 -24 -116 124
c-64 68 -135 143 -159 168 -23 25 -96 103 -163 173 -67 70 -134 142 -149 159
l-27 31 -2716 0 -2715 0 0 31 c-1 17 -1 731 -1 1586 l-1 1555 2690 2 2690 1
431 428 431 428 0 226 0 227 -3317 0 -3317 0 -475 -473z"/>
<path d="M2610 8270 l0 -310 -87 0 c-49 -1 -186 -1 -305 -1 -120 0 -219 -3
-219 -7 -1 -4 -2 -262 -3 -574 l-1 -568 40 -1 c22 -1 160 -1 308 -1 l267 0 0
-319 0 -319 610 0 c574 0 610 1 611 18 0 9 1 152 2 318 l2 301 1482 0 c1588 0
1495 -2 1544 45 8 8 93 79 189 158 96 79 177 147 180 150 3 3 49 41 104 85 54
44 109 89 123 100 l25 21 -118 103 c-66 57 -148 130 -184 161 -36 32 -135 119
-221 193 l-155 135 -1470 1 c-808 0 -1477 0 -1487 1 -17 0 -18 17 -15 310 l3
310 -612 0 -613 0 0 -310z"/>
<path d="M9421 7865 l-413 -415 416 -416 c356 -357 418 -415 431 -404 42 35
815 812 815 820 0 10 -819 830 -828 830 -4 -1 -193 -187 -421 -415z"/>
<path d="M11520 7855 l-415 -415 418 -418 417 -417 417 417 418 418 -415 415
c-228 228 -417 415 -420 415 -3 0 -192 -187 -420 -415z"/>
</g>
</svg>
